<?xml version="1.0" encoding="UTF-8"?>
<CustomTab xmlns="http://soap.sforce.com/2006/04/metadata">
    <label>QA Console</label>
    <mobileReady>false</mobileReady>
    <motif>Custom50: Big top</motif>
    <page>alm_qa__Testing_Management_Tab</page>
</CustomTab>
