<?xml version="1.0" encoding="UTF-8"?>
<CustomTab xmlns="http://soap.sforce.com/2006/04/metadata">
    <label>My Accounts</label>
    <mobileReady>false</mobileReady>
    <motif>Custom59: Can</motif>
    <page>RoofingAccountCustomTab</page>
</CustomTab>
