<?xml version="1.0" encoding="UTF-8"?>
<CustomTab xmlns="http://soap.sforce.com/2006/04/metadata">
    <description>Update line item criteria custom settings</description>
    <label>Criteria Maintenance</label>
    <mobileReady>false</mobileReady>
    <motif>Custom64: Compass</motif>
    <page>Apttus_Config2__CriteriaUpdate</page>
</CustomTab>
