<?xml version="1.0" encoding="UTF-8"?>
<CustomTab xmlns="http://soap.sforce.com/2006/04/metadata">
    <icon>BMCServiceDesk__BMC_Remedyforce_Images/BMCServiceDesk__SF1_AppIcon_16.png</icon>
    <label>BMC Helix Chatbot Configuration</label>
    <mobileReady>false</mobileReady>
    <motif>Custom150: TV Widescreen</motif>
    <page>BMCServiceDesk__ChatbotConfiguration</page>
</CustomTab>
