<?xml version="1.0" encoding="UTF-8"?>
<CustomTab xmlns="http://soap.sforce.com/2006/04/metadata">
    <label>Getting Started</label>
    <mobileReady>false</mobileReady>
    <motif>Custom27: Laptop</motif>
    <page>BMCServiceDesk__GettingStartedPage</page>
</CustomTab>
