<?xml version="1.0" encoding="UTF-8"?>
<CustomTab xmlns="http://soap.sforce.com/2006/04/metadata">
    <description>Admins can use this tab to preview the Salesforce1 Self Service application</description>
    <icon>BMCServiceDesk__BMC_Remedyforce_Images/BMCServiceDesk__SF1_AppIcon_new.png</icon>
    <label>Self Service Mobile: Preview</label>
    <mobileReady>false</mobileReady>
    <motif>Custom172: TV Widescreen</motif>
    <page>BMCServiceDesk__SF1SSHomePage</page>
</CustomTab>
