<?xml version="1.0" encoding="UTF-8"?>
<CustomTab xmlns="http://soap.sforce.com/2006/04/metadata">
    <frameHeight>650</frameHeight>
    <hasSidebar>true</hasSidebar>
    <icon>CongaWorkflow__Conga_Resources/CongaWorkflow__Conga_O_Logo.png</icon>
    <label>Conga Workflow Dashboard</label>
    <mobileReady>false</mobileReady>
    <motif>Custom253: TV Widescreen</motif>
    <url>https://workflow.congamerge.com/C8WorkflowDashboard/index.html
?SessionId={!API.Session_ID}
&amp;ServerUrl={!API.Partner_Server_URL_290}</url>
    <urlEncodingKey>UTF-8</urlEncodingKey>
</CustomTab>
