<?xml version="1.0" encoding="UTF-8"?>
<CustomTab xmlns="http://soap.sforce.com/2006/04/metadata">
    <customObject>true</customObject>
    <description>An ingredient that may be used in a Mix.</description>
    <mobileReady>false</mobileReady>
    <motif>Custom5: Leaf</motif>
</CustomTab>
