<?xml version="1.0" encoding="UTF-8"?>
<CustomTab xmlns="http://soap.sforce.com/2006/04/metadata">
    <label>My Sales Figures</label>
    <mobileReady>false</mobileReady>
    <motif>Custom83: Pencil</motif>
    <page>AllSalesFigures</page>
</CustomTab>
