<?xml version="1.0" encoding="UTF-8"?>
<CustomTab xmlns="http://soap.sforce.com/2006/04/metadata">
    <customObject>true</customObject>
    <description>Accounts the Assets are located at</description>
    <mobileReady>false</mobileReady>
    <motif>Custom32: Factory</motif>
</CustomTab>
