<?xml version="1.0" encoding="UTF-8"?>
<CustomTab xmlns="http://soap.sforce.com/2006/04/metadata">
    <frameHeight>600</frameHeight>
    <hasSidebar>true</hasSidebar>
    <label>Technical Downloads</label>
    <mobileReady>false</mobileReady>
    <motif>Custom63: Chip</motif>
    <url>http://usa.sarnafil.sika.com/content/usa/sarnafil/en/solutions_products/technical-downloads.html</url>
    <urlEncodingKey>UTF-8</urlEncodingKey>
</CustomTab>
